{
	"id": "0a82a454-bc09-4abb-a7e3-0f01d7096292",
	"name": "Local",
	"values": [
		{
			"key": "url",
			"value": "http://localhost:9000",
			"enabled": true
		},
		{
			"key": "apiVersion",
			"value": "v1",
			"enabled": true
		}
	],
	"_postman_variable_scope": "environment",
	"_postman_exported_at": "2021-03-24T13:17:03.474Z",
	"_postman_exported_using": "Postman/8.0.7"
}